{
  "vout": 0.85,
  "vin": 12.00,
  "iout": 5.64,
  "max_voltage": 0.935,
  "vdd": 0,
  "ilim": 0,
  "Rilim": 4.75e3,
  "Css": 0,
  "fsw": 750e3,
  "R1": 2e3,
  "R2": 4.75e3,
  "R3": 30e3,
  "Rton": 0,
  "C1": 0,
  "cap_out1": "C_47u_4V_X6S_0805",
  "n_parallel_out1": 2,
  "cap_out2": "C_150u_10V_POSCAP_7343",
  "n_parallel_out2": 1,
  "cap_input": "C_10u_25V_X5R_1206",
  "n_parallel_in": 4,
  "ind_out": "L_680n_10A_9mR_2020",
  "ind_in": "L_80n_6A_4mR_1206",
  "sw_name": "SC431A"
}