{
  "vout": 1.00,
  "vin": 12.00,
  "iout": 7.989,
  "max_voltage": 1.1,
  "vdd": 5.00,
  "ilim": 10.00,
  "Rilim": 4750,
  "Css": 10e-9,
  "fsw": 750e3,
  "R1": 1e3,
  "R2": 1e3,
  "R3": 30e3,
  "Rton": 0,
  "C1": 2200e-12,
  "cap_out1": "C_47u_4V_X6S_0805",
  "n_parallel_out1": 2,
  "cap_out2": "C_150u_10V_POSCAP_7343",
  "n_parallel_out2": 1,
  "cap_input": "C_10u_25V_X5R_1206",
  "n_parallel_in": 4,
  "ind_out": "L_680n_10A_9mR_2020",
  "ind_in": "L_80n_6A_4mR_1206",
  "sw_name": "SC417"
}